Final Project
…
Next, we will read-in the data using a relative path to the folder where the data file is stored.

# Use a relative path to import the data. 

diabetes_df <- read.csv("./FinalProjectRawData/diabetes_binary_health_indicators_BRFSS2015.csv")

diabetes_df <- as_tibble(diabetes_df)

diabetes_df

# A tibble: 253,680 × 22
   Diabetes_binary HighBP HighChol CholCheck   BMI Smoker Stroke
             <dbl>  <dbl>    <dbl>     <dbl> <dbl>  <dbl>  <dbl>
 1               0      1        1         1    40      1      0
 2               0      0        0         0    25      1      0
 3               0      1        1         1    28      0      0
 4               0      1        0         1    27      0      0
 5               0      1        1         1    24      0      0
 6               0      1        1         1    25      1      0
 7               0      1        0         1    30      1      0
 8               0      1        1         1    25      1      0
 9               1      1        1         1    30      1      0
10               0      0        0         1    24      0      0
# ℹ 253,670 more rows
# ℹ 15 more variables: HeartDiseaseorAttack <dbl>, PhysActivity <dbl>,
#   Fruits <dbl>, Veggies <dbl>, HvyAlcoholConsump <dbl>, AnyHealthcare <dbl>,
#   NoDocbcCost <dbl>, GenHlth <dbl>, MentHlth <dbl>, PhysHlth <dbl>,
#   DiffWalk <dbl>, Sex <dbl>, Age <dbl>, Education <dbl>, Income <dbl>
…
